{
  "$schema": "http://json-schema.org/draft-04/schema#",
  "description": "Validation schema for CoSApp configuration file.",
  "type": "object",
  "properties": {
    "userid": {
      "type": "string",
      "minLength": 1
    },
    "roles": {
      "type": "array",
      "items": {
        "type": "array",
        "items": {
          "type": "string",
          "minLength": 1
        },
        "uniqueItems": true
      },
      "uniqueItems": true
    }
  },
  "required": ["userid", "roles"],
  "additionalProperties": false
}