<?xml version="1.0" encoding="UTF-8" standalone="no"?>
<svg
   xmlns:dc="http://purl.org/dc/elements/1.1/"
   xmlns:cc="http://creativecommons.org/ns#"
   xmlns:rdf="http://www.w3.org/1999/02/22-rdf-syntax-ns#"
   xmlns:svg="http://www.w3.org/2000/svg"
   xmlns="http://www.w3.org/2000/svg"
   xmlns:sodipodi="http://sodipodi.sourceforge.net/DTD/sodipodi-0.dtd"
   xmlns:inkscape="http://www.inkscape.org/namespaces/inkscape"
   version="1.0"
   width="600"
   viewBox="0 0 660 195"
   id="svg442"
   sodipodi:docname="triggers_1.svg"
   inkscape:version="0.92.2 (5c3e80d, 2017-08-06)">
  <metadata
     id="metadata446">
    <rdf:RDF>
      <cc:Work
         rdf:about="">
        <dc:format>image/svg+xml</dc:format>
        <dc:type
           rdf:resource="http://purl.org/dc/dcmitype/StillImage" />
        <dc:title></dc:title>
      </cc:Work>
    </rdf:RDF>
  </metadata>
  <sodipodi:namedview
     pagecolor="#ffffff"
     bordercolor="#666666"
     borderopacity="1"
     objecttolerance="10"
     gridtolerance="10"
     guidetolerance="10"
     inkscape:pageopacity="0"
     inkscape:pageshadow="2"
     inkscape:window-width="1680"
     inkscape:window-height="1028"
     id="namedview444"
     showgrid="false"
     fit-margin-top="0"
     fit-margin-left="0"
     fit-margin-right="0"
     fit-margin-bottom="0"
     inkscape:zoom="0.42405004"
     inkscape:cx="334.32539"
     inkscape:cy="99.58232"
     inkscape:window-x="1672"
     inkscape:window-y="-8"
     inkscape:window-maximized="1"
     inkscape:current-layer="svg442" />
  <defs
     id="defs236">
    <pattern
       id="EMFhbasepattern"
       patternUnits="userSpaceOnUse"
       width="6"
       height="6"
       x="0"
       y="0" />
  </defs>
  <path
     style="fill:#7f7f7f;fill-opacity:1;fill-rule:nonzero;stroke:#7f7f7f;stroke-width:0.03992114px;stroke-linecap:butt;stroke-linejoin:round;stroke-miterlimit:4;stroke-dasharray:none;stroke-opacity:1"
     d="m 407.93233,73.983304 v 68.225226 h 90.78066 v -1.3174 h -90.14192 l 0.67866,0.67866 V 73.983304 Z m 89.46327,71.578606 7.98422,-3.99212 -7.98422,-3.99211 z"
     id="path238"
     inkscape:connector-curvature="0" />
  <text
     xml:space="preserve"
     style="font-style:italic;font-variant:normal;font-weight:400;font-size:18.6875px;line-height:125%;font-family:Calibri;text-align:start;letter-spacing:0px;word-spacing:0px;text-anchor:start;fill:#000000;fill-opacity:1;stroke:none"
     x="420.05109"
     y="109.62251"
     id="text244"><tspan
       sodipodi:role="line"
       x="420.05109"
       y="109.62251"
       id="tspan242"><tspan
         dx="0"
         dy="0"
         style="font-style:italic;font-variant:normal;font-weight:400;font-size:18.6875px;font-family:Calibri;fill:#7f7f7f"
         id="tspan240">a</tspan></tspan></text>
  <text
     xml:space="preserve"
     style="font-style:italic;font-variant:normal;font-weight:400;font-size:18.6875px;line-height:125%;font-family:Calibri;text-align:start;letter-spacing:0px;word-spacing:0px;text-anchor:start;fill:#000000;fill-opacity:1;stroke:none"
     x="429.63217"
     y="109.62251"
     id="text250"><tspan
       sodipodi:role="line"
       x="429.63217"
       y="109.62251"
       id="tspan248"><tspan
         dx="0"
         dy="0"
         style="font-style:italic;font-variant:normal;font-weight:400;font-size:18.6875px;font-family:Calibri;fill:#7f7f7f"
         id="tspan246">ction on </tspan></tspan></text>
  <text
     xml:space="preserve"
     style="font-style:italic;font-variant:normal;font-weight:400;font-size:18.6875px;line-height:125%;font-family:Calibri;text-align:start;letter-spacing:0px;word-spacing:0px;text-anchor:start;fill:#000000;fill-opacity:1;stroke:none"
     x="431.54837"
     y="131.97835"
     id="text256"><tspan
       sodipodi:role="line"
       x="431.54837"
       y="131.97835"
       id="tspan254"><tspan
         dx="0"
         dy="0"
         style="font-style:italic;font-variant:normal;font-weight:400;font-size:18.6875px;font-family:Calibri;fill:#7f7f7f"
         id="tspan252">owner</tspan></tspan></text>
  <path
     style="fill:#ed7d31;fill-opacity:1;fill-rule:evenodd;stroke:none"
     d="m 374.6381,40.030377 c 0,-18.723014 15.20995,-33.9329671 33.93297,-33.9329671 18.74297,0 33.93296,15.2099531 33.93296,33.9329671 0,18.742974 -15.18999,33.932966 -33.93296,33.932966 -18.72302,0 -33.93297,-15.189992 -33.93297,-33.932966 z m 2.69468,0 c 0,17.265892 13.99235,31.25825 31.23829,31.25825 17.26589,0 31.25825,-13.992358 31.25825,-31.25825 0,-17.245932 -13.99236,-31.2382901 -31.25825,-31.2382901 -17.24594,0 -31.23829,13.9923581 -31.23829,31.2382901 z"
     id="path258"
     inkscape:connector-curvature="0" />
  <path
     style="fill:none;stroke:#ed7d31;stroke-width:1.33735812px;stroke-linecap:butt;stroke-linejoin:miter;stroke-miterlimit:8;stroke-dasharray:none;stroke-opacity:1"
     d="m 374.6381,40.030377 c 0,-18.723014 15.20995,-33.9329671 33.93297,-33.9329671 18.74297,0 33.93296,15.2099531 33.93296,33.9329671 0,18.742974 -15.18999,33.932966 -33.93296,33.932966 -18.72302,0 -33.93297,-15.189992 -33.93297,-33.932966 z m 2.69468,0 c 0,17.265892 13.99235,31.25825 31.23829,31.25825 17.26589,0 31.25825,-13.992358 31.25825,-31.25825 0,-17.245932 -13.99236,-31.2382901 -31.25825,-31.2382901 -17.24594,0 -31.23829,13.9923581 -31.23829,31.2382901 z"
     id="path260"
     inkscape:connector-curvature="0" />
  <path
     style="fill:#ed7d31;fill-opacity:1;fill-rule:evenodd;stroke:none"
     d="m 409.82858,31.447332 7.6449,-11.038194 -0.73854,10.139968 8.68285,-1.656727 -3.45318,5.429275 9.04214,1.576885 -7.18581,4.431246 8.20379,5.369393 -9.78067,-0.678659 2.69467,9.800639 -8.48324,-6.906357 -1.59684,10.040166 -5.58896,-9.14194 -4.19172,12.674961 -1.59685,-11.357564 -6.06801,3.792508 1.85633,-7.006159 -11.37752,1.237555 7.38541,-5.349432 -7.66486,-6.008132 9.52119,-1.896254 -8.74273,-10.120008 14.27181,7.644898 2.13578,-7.644898 z"
     id="path262"
     inkscape:connector-curvature="0" />
  <text
     xml:space="preserve"
     style="font-style:normal;font-variant:normal;font-weight:400;font-size:23.9375px;line-height:125%;font-family:Calibri;text-align:start;letter-spacing:0px;word-spacing:0px;text-anchor:start;fill:#000000;fill-opacity:1;stroke:none"
     x="-0.54504395"
     y="23.724478"
     id="text268"><tspan
       sodipodi:role="line"
       x="-0.54504395"
       y="23.724478"
       id="tspan266"><tspan
         dx="0"
         dy="0"
         style="font-style:normal;font-variant:normal;font-weight:400;font-size:23.9375px;font-family:Calibri;fill:#ed7d31"
         id="tspan264">myTrigger</tspan></tspan></text>
  <text
     xml:space="preserve"
     style="font-style:italic;font-variant:normal;font-weight:400;font-size:14.6875px;line-height:125%;font-family:Calibri;text-align:start;letter-spacing:0px;word-spacing:0px;text-anchor:start;fill:#000000;fill-opacity:1;stroke:none"
     x="-0.54504395"
     y="43.84473"
     id="text274"><tspan
       sodipodi:role="line"
       x="-0.54504395"
       y="43.84473"
       id="tspan272"><tspan
         dx="0"
         dy="0"
         style="font-style:italic;font-variant:normal;font-weight:400;font-size:14.6875px;font-family:Calibri;fill:#ed7d31"
         id="tspan270">c</tspan></tspan></text>
  <text
     xml:space="preserve"
     style="font-style:italic;font-variant:normal;font-weight:400;font-size:14.6875px;line-height:125%;font-family:Calibri;text-align:start;letter-spacing:0px;word-spacing:0px;text-anchor:start;fill:#000000;fill-opacity:1;stroke:none"
     x="5.5229692"
     y="43.84473"
     id="text280"><tspan
       sodipodi:role="line"
       x="5.5229692"
       y="43.84473"
       id="tspan278"><tspan
         dx="0"
         dy="0"
         style="font-style:italic;font-variant:normal;font-weight:400;font-size:14.6875px;font-family:Calibri;fill:#ed7d31"
         id="tspan276">lass: </tspan></tspan></text>
  <text
     xml:space="preserve"
     style="font-style:italic;font-variant:normal;font-weight:400;font-size:14.6875px;line-height:125%;font-family:Calibri;text-align:start;letter-spacing:0px;word-spacing:0px;text-anchor:start;fill:#000000;fill-opacity:1;stroke:none"
     x="35.064621"
     y="43.84473"
     id="text286"><tspan
       sodipodi:role="line"
       x="35.064621"
       y="43.84473"
       id="tspan284"><tspan
         dx="0"
         dy="0"
         style="font-style:italic;font-variant:normal;font-weight:400;font-size:14.6875px;font-family:Calibri;fill:#ed7d31"
         id="tspan282">Trigger</tspan></tspan></text>
  <text
     xml:space="preserve"
     style="font-style:italic;font-variant:normal;font-weight:400;font-size:14.6875px;line-height:125%;font-family:Calibri;text-align:start;letter-spacing:0px;word-spacing:0px;text-anchor:start;fill:#000000;fill-opacity:1;stroke:none"
     x="-0.54504395"
     y="61.410034"
     id="text292"><tspan
       sodipodi:role="line"
       x="-0.54504395"
       y="61.410034"
       id="tspan290"><tspan
         dx="0"
         dy="0"
         style="font-style:italic;font-variant:normal;font-weight:400;font-size:14.6875px;font-family:Calibri;fill:#ed7d31"
         id="tspan288">o</tspan></tspan></text>
  <text
     xml:space="preserve"
     style="font-style:italic;font-variant:normal;font-weight:400;font-size:14.6875px;line-height:125%;font-family:Calibri;text-align:start;letter-spacing:0px;word-spacing:0px;text-anchor:start;fill:#000000;fill-opacity:1;stroke:none"
     x="6.9601302"
     y="61.410034"
     id="text298"><tspan
       sodipodi:role="line"
       x="6.9601302"
       y="61.410034"
       id="tspan296"><tspan
         dx="0"
         dy="0"
         style="font-style:italic;font-variant:normal;font-weight:400;font-size:14.6875px;font-family:Calibri;fill:#ed7d31"
         id="tspan294">wner</tspan></tspan></text>
  <text
     xml:space="preserve"
     style="font-style:italic;font-variant:normal;font-weight:400;font-size:14.6875px;line-height:125%;font-family:Calibri;text-align:start;letter-spacing:0px;word-spacing:0px;text-anchor:start;fill:#000000;fill-opacity:1;stroke:none"
     x="37.140518"
     y="61.410034"
     id="text304"><tspan
       sodipodi:role="line"
       x="37.140518"
       y="61.410034"
       id="tspan302"><tspan
         dx="0"
         dy="0"
         style="font-style:italic;font-variant:normal;font-weight:400;font-size:14.6875px;font-family:Calibri;fill:#ed7d31"
         id="tspan300">: </tspan></tspan></text>
  <text
     xml:space="preserve"
     style="font-style:italic;font-variant:normal;font-weight:400;font-size:14.6875px;line-height:125%;font-family:Calibri;text-align:start;letter-spacing:0px;word-spacing:0px;text-anchor:start;fill:#000000;fill-opacity:1;stroke:none"
     x="44.166637"
     y="61.410034"
     id="text310"><tspan
       sodipodi:role="line"
       x="44.166637"
       y="61.410034"
       id="tspan308"><tspan
         dx="0"
         dy="0"
         style="font-style:italic;font-variant:normal;font-weight:400;font-size:14.6875px;font-family:Calibri;fill:#ed7d31"
         id="tspan306">mySystem</tspan></tspan></text>
  <path
     style="fill:none;stroke:#7f7f7f;stroke-width:2.65475559px;stroke-linecap:butt;stroke-linejoin:miter;stroke-miterlimit:8;stroke-dasharray:none;stroke-opacity:1"
     d="m 21.675367,110.95028 c 0,-8.66289 7.02612,-15.689013 15.689007,-15.689013 H 153.03587 c 8.66288,0 15.689,7.026123 15.689,15.689013 v 62.77599 c 0,8.66289 -7.02612,15.68901 -15.689,15.68901 H 37.364374 c -8.662887,0 -15.689007,-7.02612 -15.689007,-15.68901 z"
     id="path312"
     inkscape:connector-curvature="0" />
  <text
     xml:space="preserve"
     style="font-style:normal;font-variant:normal;font-weight:400;font-size:23.9375px;line-height:125%;font-family:Calibri;text-align:start;letter-spacing:0px;word-spacing:0px;text-anchor:start;fill:#000000;fill-opacity:1;stroke:none"
     x="39.601479"
     y="159.43214"
     id="text318"><tspan
       sodipodi:role="line"
       x="39.601479"
       y="159.43214"
       id="tspan316"><tspan
         dx="0"
         dy="0"
         style="font-style:normal;font-variant:normal;font-weight:400;font-size:23.9375px;font-family:Calibri;fill:#7f7f7f"
         id="tspan314">mySystem</tspan></tspan></text>
  <text
     xml:space="preserve"
     style="font-style:italic;font-variant:normal;font-weight:400;font-size:14.6875px;line-height:125%;font-family:Calibri;text-align:start;letter-spacing:0px;word-spacing:0px;text-anchor:start;fill:#000000;fill-opacity:1;stroke:none"
     x="39.601479"
     y="179.5524"
     id="text324"><tspan
       sodipodi:role="line"
       x="39.601479"
       y="179.5524"
       id="tspan322"><tspan
         dx="0"
         dy="0"
         style="font-style:italic;font-variant:normal;font-weight:400;font-size:14.6875px;font-family:Calibri;fill:#7f7f7f"
         id="tspan320">c</tspan></tspan></text>
  <text
     xml:space="preserve"
     style="font-style:italic;font-variant:normal;font-weight:400;font-size:14.6875px;line-height:125%;font-family:Calibri;text-align:start;letter-spacing:0px;word-spacing:0px;text-anchor:start;fill:#000000;fill-opacity:1;stroke:none"
     x="45.669491"
     y="179.5524"
     id="text330"><tspan
       sodipodi:role="line"
       x="45.669491"
       y="179.5524"
       id="tspan328"><tspan
         dx="0"
         dy="0"
         style="font-style:italic;font-variant:normal;font-weight:400;font-size:14.6875px;font-family:Calibri;fill:#7f7f7f"
         id="tspan326">lass: </tspan></tspan></text>
  <text
     xml:space="preserve"
     style="font-style:italic;font-variant:normal;font-weight:400;font-size:14.6875px;line-height:125%;font-family:Calibri;text-align:start;letter-spacing:0px;word-spacing:0px;text-anchor:start;fill:#000000;fill-opacity:1;stroke:none"
     x="75.211136"
     y="179.5524"
     id="text336"><tspan
       sodipodi:role="line"
       x="75.211136"
       y="179.5524"
       id="tspan334"><tspan
         dx="0"
         dy="0"
         style="font-style:italic;font-variant:normal;font-weight:400;font-size:14.6875px;font-family:Calibri;fill:#7f7f7f"
         id="tspan332">System</tspan></tspan></text>
  <text
     xml:space="preserve"
     style="font-style:italic;font-variant:normal;font-weight:400;font-size:18.6875px;line-height:125%;font-family:Calibri;text-align:start;letter-spacing:0px;word-spacing:0px;text-anchor:start;fill:#000000;fill-opacity:1;stroke:none"
     x="489.6048"
     y="12.674286"
     id="text342"><tspan
       sodipodi:role="line"
       x="489.6048"
       y="12.674286"
       id="tspan340"><tspan
         dx="0"
         dy="0"
         style="font-style:italic;font-variant:normal;font-weight:400;font-size:18.6875px;font-family:Calibri;fill:#7f7f7f"
         id="tspan338">e</tspan></tspan></text>
  <text
     xml:space="preserve"
     style="font-style:italic;font-variant:normal;font-weight:400;font-size:18.6875px;line-height:125%;font-family:Calibri;text-align:start;letter-spacing:0px;word-spacing:0px;text-anchor:start;fill:#000000;fill-opacity:1;stroke:none"
     x="498.38742"
     y="12.674286"
     id="text348"><tspan
       sodipodi:role="line"
       x="498.38742"
       y="12.674286"
       id="tspan346"><tspan
         dx="0"
         dy="0"
         style="font-style:italic;font-variant:normal;font-weight:400;font-size:18.6875px;font-family:Calibri;fill:#7f7f7f"
         id="tspan344">vent</tspan></tspan></text>
  <text
     xml:space="preserve"
     style="font-style:italic;font-variant:normal;font-weight:400;font-size:18.6875px;line-height:125%;font-family:Calibri;text-align:start;letter-spacing:0px;word-spacing:0px;text-anchor:start;fill:#000000;fill-opacity:1;stroke:none"
     x="535.43427"
     y="12.674286"
     id="text354"><tspan
       sodipodi:role="line"
       x="535.43427"
       y="12.674286"
       id="tspan352"><tspan
         dx="0"
         dy="0"
         style="font-style:italic;font-variant:normal;font-weight:400;font-size:18.6875px;font-family:Calibri;fill:#7f7f7f"
         id="tspan350">detected</tspan></tspan></text>
  <text
     xml:space="preserve"
     style="font-style:italic;font-variant:normal;font-weight:400;font-size:18.6875px;line-height:125%;font-family:Calibri;text-align:start;letter-spacing:0px;word-spacing:0px;text-anchor:start;fill:#000000;fill-opacity:1;stroke:none"
     x="601.2243"
     y="12.674286"
     id="text360"><tspan
       sodipodi:role="line"
       x="601.2243"
       y="12.674286"
       id="tspan358"><tspan
         dx="0"
         dy="0"
         style="font-style:italic;font-variant:normal;font-weight:400;font-size:18.6875px;font-family:Calibri;fill:#7f7f7f"
         id="tspan356">!</tspan></tspan></text>
  <path
     style="fill:#7f7f7f;fill-opacity:1;fill-rule:nonzero;stroke:#7f7f7f;stroke-width:0.01996057px;stroke-linecap:butt;stroke-linejoin:round;stroke-miterlimit:4;stroke-dasharray:none;stroke-opacity:1"
     d="m 482.02596,9.3509829 -5.76861,0.638738 v 0 l -2.85436,0.3592901 v -0.01996 l -2.8344,0.419172 h 0.02 l -2.81444,0.479054 h 0.02 l -2.77452,0.558896 0.02,-0.01996 -2.73459,0.67866 0.0399,-0.01996 -2.67472,0.778462 h 0.0399 l -2.67471,0.918186 h 0.0399 l -2.67472,1.077871 0.02,-0.01996 -2.67471,1.197634 h 0.02 l -2.59488,1.257516 v 0 l -2.51503,1.317397 0.02,-0.01996 -2.37531,1.337359 v -0.01996 l -2.21562,1.317398 0.02,-0.01996 -1.01799,0.638738 v 0 l -0.97807,0.618778 v 0 l -0.89822,0.598817 0.0399,-0.01996 -0.81838,0.598817 v -0.01996 l -0.73854,0.578856 0.02,-0.01996 -0.67866,0.578856 0.02,-0.01996 -1.2176,1.157713 0.02,-0.01996 -1.517,1.556924 -0.93815,-0.938146 1.51701,-1.556925 1.23755,-1.177673 0.69862,-0.598817 0.77846,-0.598817 0.83835,-0.598817 0.91818,-0.618778 0.97807,-0.618778 1.03795,-0.658698 2.23559,-1.297437 2.39526,-1.337358 2.535,-1.317398 2.61483,-1.277476 2.69468,-1.217595 2.71463,-1.077871 2.69468,-0.938147 2.69468,-0.798422 2.75456,-0.67866 2.79448,-0.5588961 2.8344,-0.479053 2.85436,-0.419172 2.87432,-0.35929 5.78856,-0.618778 z m -44.37235,19.8008841 -8.44332,2.894282 2.7346,-8.483242 z"
     id="path362"
     inkscape:connector-curvature="0" />
  <path
     style="fill:none;stroke:#7f7f7f;stroke-width:2.67471623px;stroke-linecap:butt;stroke-linejoin:miter;stroke-miterlimit:8;stroke-dasharray:none;stroke-opacity:1"
     d="m 505.37982,110.15186 c 0,-8.70281 7.02612,-15.728933 15.72893,-15.728933 h 115.65154 c 8.66288,0 15.689,7.026123 15.689,15.728933 v 62.75603 c 0,8.66288 -7.02612,15.689 -15.689,15.689 H 521.10875 c -8.70281,0 -15.72893,-7.02612 -15.72893,-15.689 z"
     id="path364"
     inkscape:connector-curvature="0" />
  <text
     xml:space="preserve"
     style="font-style:normal;font-variant:normal;font-weight:400;font-size:23.9375px;line-height:125%;font-family:Calibri;text-align:start;letter-spacing:0px;word-spacing:0px;text-anchor:start;fill:#000000;fill-opacity:1;stroke:none"
     x="523.32269"
     y="158.58624"
     id="text370"><tspan
       sodipodi:role="line"
       x="523.32269"
       y="158.58624"
       id="tspan368"><tspan
         dx="0"
         dy="0"
         style="font-style:normal;font-variant:normal;font-weight:400;font-size:23.9375px;font-family:Calibri;fill:#7f7f7f"
         id="tspan366">mySystem</tspan></tspan></text>
  <text
     xml:space="preserve"
     style="font-style:italic;font-variant:normal;font-weight:400;font-size:14.6875px;line-height:125%;font-family:Calibri;text-align:start;letter-spacing:0px;word-spacing:0px;text-anchor:start;fill:#000000;fill-opacity:1;stroke:none"
     x="523.32269"
     y="178.70651"
     id="text376"><tspan
       sodipodi:role="line"
       x="523.32269"
       y="178.70651"
       id="tspan374"><tspan
         dx="0"
         dy="0"
         style="font-style:italic;font-variant:normal;font-weight:400;font-size:14.6875px;font-family:Calibri;fill:#7f7f7f"
         id="tspan372">c</tspan></tspan></text>
  <text
     xml:space="preserve"
     style="font-style:italic;font-variant:normal;font-weight:400;font-size:14.6875px;line-height:125%;font-family:Calibri;text-align:start;letter-spacing:0px;word-spacing:0px;text-anchor:start;fill:#000000;fill-opacity:1;stroke:none"
     x="529.39069"
     y="178.70651"
     id="text382"><tspan
       sodipodi:role="line"
       x="529.39069"
       y="178.70651"
       id="tspan380"><tspan
         dx="0"
         dy="0"
         style="font-style:italic;font-variant:normal;font-weight:400;font-size:14.6875px;font-family:Calibri;fill:#7f7f7f"
         id="tspan378">lass: </tspan></tspan></text>
  <text
     xml:space="preserve"
     style="font-style:italic;font-variant:normal;font-weight:400;font-size:14.6875px;line-height:125%;font-family:Calibri;text-align:start;letter-spacing:0px;word-spacing:0px;text-anchor:start;fill:#000000;fill-opacity:1;stroke:none"
     x="558.93231"
     y="178.70651"
     id="text388"><tspan
       sodipodi:role="line"
       x="558.93231"
       y="178.70651"
       id="tspan386"><tspan
         dx="0"
         dy="0"
         style="font-style:italic;font-variant:normal;font-weight:400;font-size:14.6875px;font-family:Calibri;fill:#7f7f7f"
         id="tspan384">System</tspan></tspan></text>
  <text
     xml:space="preserve"
     style="font-style:normal;font-variant:normal;font-weight:400;font-size:23.9375px;line-height:125%;font-family:Calibri;text-align:start;letter-spacing:0px;word-spacing:0px;text-anchor:start;fill:#000000;fill-opacity:1;stroke:none"
     x="258.40451"
     y="23.724478"
     id="text394"><tspan
       sodipodi:role="line"
       x="258.40451"
       y="23.724478"
       id="tspan392"><tspan
         dx="0"
         dy="0"
         style="font-style:normal;font-variant:normal;font-weight:400;font-size:23.9375px;font-family:Calibri;fill:#ed7d31"
         id="tspan390">myTrigger</tspan></tspan></text>
  <text
     xml:space="preserve"
     style="font-style:italic;font-variant:normal;font-weight:400;font-size:14.6875px;line-height:125%;font-family:Calibri;text-align:start;letter-spacing:0px;word-spacing:0px;text-anchor:start;fill:#000000;fill-opacity:1;stroke:none"
     x="258.40451"
     y="43.84473"
     id="text400"><tspan
       sodipodi:role="line"
       x="258.40451"
       y="43.84473"
       id="tspan398"><tspan
         dx="0"
         dy="0"
         style="font-style:italic;font-variant:normal;font-weight:400;font-size:14.6875px;font-family:Calibri;fill:#ed7d31"
         id="tspan396">c</tspan></tspan></text>
  <text
     xml:space="preserve"
     style="font-style:italic;font-variant:normal;font-weight:400;font-size:14.6875px;line-height:125%;font-family:Calibri;text-align:start;letter-spacing:0px;word-spacing:0px;text-anchor:start;fill:#000000;fill-opacity:1;stroke:none"
     x="264.47253"
     y="43.84473"
     id="text406"><tspan
       sodipodi:role="line"
       x="264.47253"
       y="43.84473"
       id="tspan404"><tspan
         dx="0"
         dy="0"
         style="font-style:italic;font-variant:normal;font-weight:400;font-size:14.6875px;font-family:Calibri;fill:#ed7d31"
         id="tspan402">lass: </tspan></tspan></text>
  <text
     xml:space="preserve"
     style="font-style:italic;font-variant:normal;font-weight:400;font-size:14.6875px;line-height:125%;font-family:Calibri;text-align:start;letter-spacing:0px;word-spacing:0px;text-anchor:start;fill:#000000;fill-opacity:1;stroke:none"
     x="294.01416"
     y="43.84473"
     id="text412"><tspan
       sodipodi:role="line"
       x="294.01416"
       y="43.84473"
       id="tspan410"><tspan
         dx="0"
         dy="0"
         style="font-style:italic;font-variant:normal;font-weight:400;font-size:14.6875px;font-family:Calibri;fill:#ed7d31"
         id="tspan408">Trigger</tspan></tspan></text>
  <text
     xml:space="preserve"
     style="font-style:italic;font-variant:normal;font-weight:400;font-size:14.6875px;line-height:125%;font-family:Calibri;text-align:start;letter-spacing:0px;word-spacing:0px;text-anchor:start;fill:#000000;fill-opacity:1;stroke:none"
     x="258.40451"
     y="61.410034"
     id="text418"><tspan
       sodipodi:role="line"
       x="258.40451"
       y="61.410034"
       id="tspan416"><tspan
         dx="0"
         dy="0"
         style="font-style:italic;font-variant:normal;font-weight:400;font-size:14.6875px;font-family:Calibri;fill:#ed7d31"
         id="tspan414">o</tspan></tspan></text>
  <text
     xml:space="preserve"
     style="font-style:italic;font-variant:normal;font-weight:400;font-size:14.6875px;line-height:125%;font-family:Calibri;text-align:start;letter-spacing:0px;word-spacing:0px;text-anchor:start;fill:#000000;fill-opacity:1;stroke:none"
     x="265.9097"
     y="61.410034"
     id="text424"><tspan
       sodipodi:role="line"
       x="265.9097"
       y="61.410034"
       id="tspan422"><tspan
         dx="0"
         dy="0"
         style="font-style:italic;font-variant:normal;font-weight:400;font-size:14.6875px;font-family:Calibri;fill:#ed7d31"
         id="tspan420">wner</tspan></tspan></text>
  <text
     xml:space="preserve"
     style="font-style:italic;font-variant:normal;font-weight:400;font-size:14.6875px;line-height:125%;font-family:Calibri;text-align:start;letter-spacing:0px;word-spacing:0px;text-anchor:start;fill:#000000;fill-opacity:1;stroke:none"
     x="296.09006"
     y="61.410034"
     id="text430"><tspan
       sodipodi:role="line"
       x="296.09006"
       y="61.410034"
       id="tspan428"><tspan
         dx="0"
         dy="0"
         style="font-style:italic;font-variant:normal;font-weight:400;font-size:14.6875px;font-family:Calibri;fill:#ed7d31"
         id="tspan426">: </tspan></tspan></text>
  <text
     xml:space="preserve"
     style="font-style:italic;font-variant:normal;font-weight:400;font-size:14.6875px;line-height:125%;font-family:Calibri;text-align:start;letter-spacing:0px;word-spacing:0px;text-anchor:start;fill:#000000;fill-opacity:1;stroke:none"
     x="303.11618"
     y="61.410034"
     id="text436"><tspan
       sodipodi:role="line"
       x="303.11618"
       y="61.410034"
       id="tspan434"><tspan
         dx="0"
         dy="0"
         style="font-style:italic;font-variant:normal;font-weight:400;font-size:14.6875px;font-family:Calibri;fill:#ed7d31"
         id="tspan432">mySystem</tspan></tspan></text>
  <path
     style="fill:#ed7d31;fill-opacity:1;fill-rule:evenodd;stroke:none"
     d="m 111.83725,40.030377 c 0,-18.723014 15.18999,-33.9329671 33.93297,-33.9329671 18.74297,0 33.93297,15.2099531 33.93297,33.9329671 0,18.742974 -15.19,33.932966 -33.93297,33.932966 -18.74298,0 -33.93297,-15.189992 -33.93297,-33.932966 z m 2.67472,0 c 0,17.265892 13.99236,31.25825 31.25825,31.25825 17.24593,0 31.23829,-13.992358 31.23829,-31.25825 0,-17.245932 -13.99236,-31.2382901 -31.23829,-31.2382901 -17.26589,0 -31.25825,13.9923581 -31.25825,31.2382901 z"
     id="path438"
     inkscape:connector-curvature="0" />
  <path
     style="fill:none;stroke:#ed7d31;stroke-width:1.33735812px;stroke-linecap:butt;stroke-linejoin:miter;stroke-miterlimit:8;stroke-dasharray:none;stroke-opacity:1"
     d="m 111.83725,40.030377 c 0,-18.723014 15.18999,-33.9329671 33.93297,-33.9329671 18.74297,0 33.93297,15.2099531 33.93297,33.9329671 0,18.742974 -15.19,33.932966 -33.93297,33.932966 -18.74298,0 -33.93297,-15.189992 -33.93297,-33.932966 z m 2.67472,0 c 0,17.265892 13.99236,31.25825 31.25825,31.25825 17.24593,0 31.23829,-13.992358 31.23829,-31.25825 0,-17.245932 -13.99236,-31.2382901 -31.23829,-31.2382901 -17.26589,0 -31.25825,13.9923581 -31.25825,31.2382901 z"
     id="path440"
     inkscape:connector-curvature="0" />
</svg>
